Chapter 3 getTBinR: an R package for accessing and summarising World Health Organization Tuberculosis data | Modelling BCG vaccination in the UK
…
Figure 3.4: TB incidence rates over time, with confidence intervals, in the UK. As produced by getTBinR.

3.6 Data summarisation

The same summarisation functionality outlined in 3.4.3 is also available in a separate function, summarise_tb_burden, which can be used to generate summarised datasets for further analysis or visualisation. All non-plotting functions outlined for plot_tb_burden_summary are implemented here. The code below summarises TB incidence rates in the UK, in Europe, and globally.

summarise_tb_burden(metric = "e_inc_num",
                     stat = "rate",
                     countries = "United Kingdom", 
                     compare_to_world = TRUE, 
                     compare_to_region = TRUE,
                     verbose = FALSE)

# A tibble: 152 x 5
   area                            year e_inc_num e_inc_num_lo e_inc_num_hi
   <fct>                          <int>     <dbl>        <dbl>        <dbl>
 1 United Kingdom of Great Brita…  2000      11.9         10.7         13.1
 2 United Kingdom of Great Brita…  2001      11.5         10.3         12.7
 3 United Kingdom of Great Brita…  2002      13.1         11.8         14.3
 4 United Kingdom of Great Brita…  2003      13.4         12.1         14.8
 5 United Kingdom of Great Brita…  2004      13.2         11.9         14.5
 6 United Kingdom of Great Brita…  2005      15.3         13.8         16.6
 7 United Kingdom of Great Brita…  2006      15.3         13.8         16.4
 8 United Kingdom of Great Brita…  2007      14.6         13.2         16.1
 9 United Kingdom of Great Brita…  2008      15.0         13.5         16.1
10 United Kingdom of Great Brita…  2009      14.5         13.1         15.9
# … with 142 more rows
…
